-8 -32 -120 -32 768
-80 -64 832
-56 -64 -96 -40 -56 640
-64 -96 -24 -16 -48 704
-104 -112 -8 -72 664
-104 -80 -104 -40 632
8 -88 -8 -8 -24 -32 -48 -56 -80 568
80 -112 784
32 -56 -64 -112 696
-80 -24 -72 8 -104 664
80 -56 -88 -120 616
-56 72 -8 -96 -16 -104 -96 488
32 -112 -104 720
-64 -8 -8 -80 -8 -120 656
-48 -48 8 -120 736
-88 -64 -56 -40 -40 664
-16 968
-32 -104 840
-80 -16 880
-120 120 -72 -24 624
-8 -120 -72 -24 -120 608
-32 -8 -16 912
-80 -112 -72 704
-112 -16 -112 -64 -48 -16 -24 -72 -104 -120 -32 -72 104
-72 88 -16 -120 -72 584
-40 -88 -32 -16 784
-8 -16 -16 -48 -104 760
