-8 976
-80 -104 -24 760
-80 -120 -72 696
-40 -104 -56 -88 672
-96 -120 760
-56 -48 -32 72 -80 -104 552
-48 -64 864
-96 -24 -24 824
-48 -56 -16 -56 784
-64 -24 888
-16 -56 -32 864
-64 -80 -96 -88 632
-72 -64 840
-16 8 -80 -48 -40 -48 -56 640
-8 -24 -104 -8 -16 -40 -112 -96 -64 448
-8 104 -120 -88 640
-104 -56 -32 -72 696
-16 176 -112 664
-56 -72 848
8 -88 880
-120 -80 32 -120 608
-64 -40 -88 -120 -16 624
-104 -56 16 -8 -96 -88 576
-40 8 -48 -104 760
16 -96 -16 -120 -112 -40 544
