25

-3
11
-8
-1
-9
-8
-4
3
-9
-8
-3
2

-6
-3
6
1
6
2
-6
-4
-9
-1
6
1
-9
-3
-2

14
-7
13
-10
11
-8
14
-4
-8
-4
11
-8
2
-3
-7
-1
-3
6
9

-4
-4

-4
-10
-3
4

5
-8
-7
-1

8
15
-1
10
12
9
1
8
-5
-9
-6
-6
2
-8
6
12
-6
3
8

7
-8
-2
9
10

4
15
-2
15
5
-3

-9
-2
4
3
-7
3
-2
12
-8
13
-5
-7
-6
-2
6
2

-1
-5
-1
-4

2
-10
15
9
-2
9
14
-7
8
9
-9
-2

-9
12
15
11
-2
11
12
2
-9
15
15
13
-7
8
-2
2
8
4
-9

10
7
3
15
-3
15
-9
-2
-2
-8
-9
15
-2
-10
15
-8
-5
-9
-1

3
4
-9
-8
-1
9
-8
6

-9
-7
6
13
11
-7
15
-9
-10
-8
2
14
-3
-9
-9
-9
-9
-9
6
-7

-6
-10
-10

-10
10
6
-7
-5

-10
2
-9
4
2
-4
-1

-7
11
13
-6
5
-10
7
-2
3

8
-7
-4
6
7
15
13
14
11
-8
-3
-9

5
-10

-3
5

13
-6
-3
11
-2
6
1
1
-7
7

11
14
6
4
-1
-10
-8
-3
6
-3
-2
-2
5
11
-10
