-48 32 -72 8 -120 672
-24 -8 944
-32 -96 -56 -56 -40 672
-32 -24 24 -88 -80 -88 -56 544
-16 -8 64 -112 112 -104 528
992
-56 -8 912
-104 -56 -32 -112 -40 608
-80 -16 -48 -64 752
-80 -16 880
-96 -64 -64 -112 624
-112 40 -48 -112 -64 -112 -120 328
-112 -80 104 -24 -24 608
-32 952
-56 -40 -40 832
-16 -64 -40 24 -104 -104 -48 -120 408
-48 216 -40 -88 568
-48 936
-32 -56 -56 -72 -8 -40 -64 64 -24 504
192 -64 -24 -120 -56 -8 480
-32 -96 -96 -112 -16 -88 -8 -24 -120 328
-24 -104 848
-72 -40 48 -104 -56 -64 560
-32 -32 -96 808
-24 -112 -40 792
-8 -16 -40 904
992
-56 56 -16 840
-80 -104 -32 56 -64 616
