-112 -64 -64 728
-88 -56 -24 800
992
-48 -88 -16 816
-80 -80 -96 712
112 -16 -96 744
-16 -112 848
-56 -24 -64 -104 712
72 -80 824
-72 -48 16 -48 -104 -32 624
200 -56 720
-72 16 -32 848
-48 120 -88 -104 600
120 -88 768
-104 -16 -48 -72 -104 608
-8 -64 -80 -96 -120 -8 568
-112 872
-24 -32 -72 840
-104 -16 -104 -104 632
-80 -104 -88 -40 648
992
-96 -56 824
-120 -16 840
-80 -104 -24 -120 -8 616
-80 -56 840
-40 -32 -56 -16 816
