-16 -48 912
-48 -32 896
-40 8 -56 864
-32 -48 -32 856
-80 -16 -48 -56 -72 680
-24 -64 888
-64 -56 -48 800
-72 -32 872
-48 -72 -56 792
-56 -72 848
24 -24 8 -32 872
-8 976
-40 -80 -24 -64 752
-56 -40 -8 -40 816
-72 -56 -72 768
-8 -8 960
-48 -40 888
32 -80 -56 -80 712
-72 -24 880
-32 -56 -56 -64 -8 736
40 -48 -72 808
-48 -16 -48 -64 784
-8 -48 -24 -80 -80 712
-48 -64 -48 808
-80 -64 832
