25

-10
-4
2
-9
-3
6

6
-6
-5
-5
4
-8
-7
-6
-9

5
1
7
3
-4
-5
-2

-5
-10
-5
4
6
4

10
2
6
7
9

-8
-1
-9
3
8
-7
-8

-4
-4
4
-6
-1
-3
-6
8
7
6

10
-1
9
4
10
-3

6
-7
-4
9
-4
-10
-3
7

7
-1
-9
-8
-8
7
-8
9
-3
-3

-10
3
-4
5
4
-6
-2
3
-1
-9

1
3
-5
-9
-3
-2

5
-3
-8
-8
10
3
-9
-9
8

7
5
1
-2
4
5

-3
9
-7
7
-3
9

3
-4
-2
2
-7
-2
-8
-1
1
1

-7
9
-10
-1
-2
-3
6
5

4
10
-1
-10
-8
-7
7
-4
10

5
-1
-2
-8
9
-8
3

-1
4
7
7
8
1
-5
1
-6
-8

5
-6
-7
6
-1
-9
-6
9

6
9
-2
-9
-7
2
6
8
-6

1
-6
6
3
10
10

-9
6
-5
-7
-10
-6
8
6

-8
-8
-8
-4
10
-9
-7
8
-10
