30

15
1
14
7
4
2

13
-10
-6
-2
10
-9
-10

-3
-7
4
-5
8
-7

-10
9
2
3
12
13
15

13
-10
12
-8
-8
-5
4

8
9
1
-10
-3
-7
11

8
-4
-2
-8
10
-7
6

5
-10
14
13
11
-2
-7

15
10
8
7
4
6

-7
-9
-2
3
-3
13

10
-3
-1
-6
14
13

1
-8
-4
12
-8
12

-7
-7
-4
3
-1

-3
14
15
-2
7

1
9
-3
-9
3

12
10
11
-4
15
-8

2
5
8
15
8
-6
9

11
-2
-4
5
-7
6

-10
14
-8
-9
-9
9
-7

8
-9
15
-7
5
12
-10

-10
-7
-2
-10
11
5

7
7
-10
10
11
-9

-3
5
7
11
-3

8
-2
3
14
-8
8
-3

-10
-3
12
-9
5

-7
-1
15
-6
-2

1
4
1
-10
15

-3
-2
14
1
-7

14
-7
-7
11
-8
10
-4

-5
-2
-5
2
-9
