23

3
-2
-9
-3
-6
-6
-10
15
9

-2
-3
4
12
-7
15
2
-7
12
-1
-3
13
4

1
-5
3

-2
6
3
-1
9
5

-3
-9
9
1
-8
5
-6
7
-6
8
-9
7
9
8
-5
9
13
-6

11
13
-3
5
3
1
-9
5
-6
14
1
-9

-5
-7
1
8
1
-8
-3
7
-6
-9
13

12
-1
14
10
4
4
-5
10
-1
-1
-9
11
9
9
-3
10
-1
6
-4

-8
6
-3
-4
11
-5
8

-3
14
-4
-4
-4
10
9
10
-1
-7
3
-3
1

6
8
-10
-6
4
9
-1
11
-3
7
-6
13
-3
-2
4
-4
10
5

-9
10
2
-8
-8
10
-5
8
-4
-3

-1
2
-2
12
-2
-4
-4

-9
-9
10
-2
2
-3
-5
5
-3
-9
7
-6
13
-5
-6
15

-6
7
12
12
-1
-5
9
-6
12
2
-1
-2

-5
-5
-6
6
-3
-4
-10
4
-8
6
14

-10
-6
-10
-9
13
-8
10
-5
6
-3
13
-6
7
-8
13
-3
1

7
-9
10
-4
-9
-1
9

-10
-8
-1
12
1
-1
6
-10
-4
-7

8
-9
10
-10
-1
-6
-5

1
1
-6
-1
-6
-8
6
-7
8
15
-6
4
2
-7

14
-4
-10
14
-8
7
7

8
-6
3
6
