-104 -112 760
-8 -8 960
992
64 -8 -80 -104 704
-8 -8 -8 -8 -8 -104 800
-96 88 -112 672
8 -8 -96 856
-8 40 -8 -8 -8 -96 776
-104 880
-8 976
-88 896
-8 -112 -88 760
-8 56 -8 -88 800
8 -8 48 -8 888
-24 -88 864
32 -96 848
-80 -80 -104 704
72 -8 -8 -96 -104 -96 -96 456
32 -96 848
-56 -8 -8 -8 880
-8 -80 -88 -8 776
104 -96 -112 656
-8 976
-32 -8 -88 -112 -8 704
-32 -112 -112 712
-32 -8 -8 920
8 -8 56 -112 776
-8 -80 -8 872
72 -88 -8 -8 -112 -112 -96 440
-8 -112 -8 -96 -80 648
